Data Wrangling Final Project
…
Research Question 1: Average Car Price by Year

average_price_by_year <- usa_cars %>%
  group_by(year) %>%
  summarise(average_price = mean(price, na.rm = TRUE))
print("Average Car Price by Year:")

## [1] "Average Car Price by Year:"

print(average_price_by_year)

## # A tibble: 30 × 2
##     year average_price
##    <int>         <dbl>
##  1  1973      29800   
##  2  1984         25   
##  3  1993          0   
##  4  1994         12.5 
##  5  1995          0   
##  6  1996          0   
##  7  1997          0   
##  8  1998          6.25
##  9  1999         25   
## 10  2000         43.8 
## # ℹ 20 more rows
…
